{
  "project_info": {
    "project_number": "419896552058",
    "project_id": "vaxchemi-5a962",
    "storage_bucket": "vaxchemi-5a962.appspot.com"
  },
  "client": [
    {
      "client_info": {
        "mobilesdk_app_id": "1:419896552058:android:3ae441d8c5142eb821a9c3",
        "android_client_info": {
          "package_name": "com.example.aninterface"
        }
      },
      "oauth_client": [
        {
          "client_id": "419896552058-344p1ldvmkcg7pdigaogus944gjmktvj.apps.googleusercontent.com",
          "client_type": 3
        }
      ],
      "api_key": [
        {
          "current_key": "AIzaSyCX4qGnnVKz00-EEvDu80SvvqOhVQEkMIs"
        }
      ],
      "services": {
        "appinvite_service": {
          "other_platform_oauth_client": [
            {
              "client_id": "419896552058-344p1ldvmkcg7pdigaogus944gjmktvj.apps.googleusercontent.com",
              "client_type": 3
            }
          ]
        }
      }
    }
  ],
  "configuration_version": "1"
}